SingleCycleProcessor.sim/sim_1/behav/xsim/simulate.log
Time resolution is 1 ps
Cycle: 0 | PC: 0000000000000000 | Instruction: 00000000000000000000000010000011 | ALU Inputs: A=0, B=0 | ALU Control: 0010 | ALU Result: 0
Cycle: 1 | PC: 0000000000000004 | Instruction: 00000000000100000000000100000011 | ALU Inputs: A=0, B=1 | ALU Control: 0010 | ALU Result: 1
Cycle: 2 | PC: 0000000000000008 | Instruction: 00000000001000000000000110000011 | ALU Inputs: A=0, B=2 | ALU Control: 0010 | ALU Result: 2
Cycle: 3 | PC: 000000000000000c | Instruction: 00000000001100000000001000000011 | ALU Inputs: A=0, B=3 | ALU Control: 0010 | ALU Result: 3
Cycle: 4 | PC: 0000000000000010 | Instruction: 00000000010000000000001010000011 | ALU Inputs: A=0, B=4 | ALU Control: 0010 | ALU Result: 4
Cycle: 5 | PC: 0000000000000014 | Instruction: 00000000010100000000001100000011 | ALU Inputs: A=0, B=5 | ALU Control: 0010 | ALU Result: 5
Cycle: 6 | PC: 0000000000000018 | Instruction: 00000010001000001000001110110011 | ALU Inputs: A=1000, B=200 | ALU Control: 1000 | ALU Result: 200000
Cycle: 7 | PC: 000000000000001c | Instruction: 00000010010000011000010000110011 | ALU Inputs: A=18446744073709551316, B=800 | ALU Control: 1000 | ALU Result: 18446744073709311616
Cycle: 8 | PC: 0000000000000020 | Instruction: 00000000100000111000010010110011 | ALU Inputs: A=200000, B=18446744073709311616 | ALU Control: 0010 | ALU Result: 18446744073709511616
Cycle: 9 | PC: 0000000000000024 | Instruction: 01000000010101001000010100110011 | ALU Inputs: A=18446744073709511616, B=18446744073709551516 | ALU Control: 0110 | ALU Result: 18446744073709511716
Cycle: 10 | PC: 0000000000000028 | Instruction: 00000010011001010100010110110011 | ALU Inputs: A=18446744073709511716, B=3 | ALU Control: 1100 | ALU Result: 18446744073709538316
Cycle: 11 | PC: 000000000000002c | Instruction: 00000000000000000000000000000000 | ALU Inputs: A=0, B=0 | ALU Control: 0010 | ALU Result: 0
Simulation halted after 32 cycles.
$finish called at time : 125 ns : File "C:/Users/jared/SingleCycleProcessor/SingleCycleProcessor.srcs/sim_1/new/SingleCycleProcessor_tb.v" Line 36
